<?xml version="1.0" encoding="UTF-8"?>
<svg width="60px" height="36px" viewBox="0 0 60 36" version="1.1" xmlns="http://www.w3.org/2000/svg" xmlns:xlink="http://www.w3.org/1999/xlink">
    <!-- Generator: Sketch 51.3 (57544) - http://www.bohemiancoding.com/sketch -->
    <title>Group 20</title>
    <desc>Created with Sketch.</desc>
    <defs>
        <polygon id="path-1" points="0.0511208211 0.14244898 11.9340751 0.14244898 11.9340751 17.7521676 0.0511208211 17.7521676"></polygon>
        <polygon id="path-3" points="0.10262668 0.34692875 16.6 0.34692875 16.6 25.9155773 0.10262668 25.9155773"></polygon>
        <polygon id="path-5" points="0.123323971 0.191920767 10.8487515 0.191920767 10.8487515 16.3265306 0.123323971 16.3265306"></polygon>
    </defs>
    <g id="Page-1" stroke="none" stroke-width="1" fill="none" fill-rule="evenodd">
        <g id="iPhone-8" transform="translate(-20.000000, -20.000000)">
            <g id="Group-20" transform="translate(20.000000, 20.000000)">
                <path d="M4.90322449,6.33093878 L6.96771429,6.11379592 C7.34608163,6.07420408 7.55465306,6.23991837 7.59383673,6.61216327 L7.65465306,7.18930612 C7.71465306,7.7595102 7.45669388,8.14114286 6.88159184,8.33257143 L5.3375102,8.85257143 C5.25873469,8.8795102 5.18812245,8.8962449 5.1264898,8.90318367 C4.86608163,8.93012245 4.71995918,8.79216327 4.68771429,8.48808163 C4.68404082,8.45093878 4.68322449,8.41379592 4.68526531,8.37583673 L4.65138776,6.62073469 C4.64567347,6.44563265 4.72934694,6.34930612 4.90322449,6.33093878 M8.02485714,12.1431837 C8.02934694,12.1872653 8.03138776,12.2337959 8.03016327,12.284 L8.0575102,13.6162449 C8.06812245,14.1978776 7.7697551,14.5211429 7.16281633,14.5852245 C7.10036735,14.5913469 7.03506122,14.5954286 6.9664898,14.5962449 L5.29506122,14.621551 C5.10689796,14.6223673 5.00444898,14.539102 4.98689796,14.3717551 L4.73261224,11.9533878 C4.71220408,11.761551 4.79506122,11.6554286 4.98118367,11.6358367 L7.04608163,11.4186939 C7.64118367,11.3562449 7.96771429,11.5978776 8.02485714,12.1431837 M2.71506122,17.4505306 L8.88689796,16.9427755 C8.91791837,16.9395102 8.94567347,16.9362449 8.97057143,16.9342041 C9.90077551,16.8362449 10.6489388,16.4097143 11.2150612,15.6542041 L11.842,14.8170612 C12.4301633,14.0342041 12.6750612,13.1717551 12.5758776,12.2293061 L12.5105714,11.6060408 C12.4093469,10.6448163 11.9766939,9.86930612 11.2126122,9.27910204 L10.5779184,8.79053061 L10.9779184,8.29706122 C11.5881224,7.54359184 11.8428163,6.68930612 11.7424082,5.73420408 L11.5950612,4.33012245 C11.4958776,3.38726531 10.9815918,2.73012245 10.0522041,2.35746939 C9.31955102,2.06440816 8.43220408,1.97297959 7.39057143,2.08236735 L1.25914286,2.70808163 C0.632612245,2.77379592 0.352204082,3.11706122 0.417510204,3.73706122 L1.77832653,16.6835918 C1.83710204,17.241551 2.14934694,17.4974694 2.71506122,17.4505306" id="Fill-1" fill="#50E3C2"></path>
                <path d="M14.992898,17.0595918 L17.7141224,17.0595918 C18.2002449,17.0595918 18.4561633,16.8130612 18.4810612,16.3204082 L19.0982041,3.10571429 L19.0982041,3.04040816 C19.0982041,2.56653061 18.8488163,2.32979592 18.3500408,2.32979592 L14.8243265,2.32979592 C14.3194286,2.32979592 14.0667755,2.58244898 14.0667755,3.08734694 L14.0667755,3.10571429 L14.2353469,16.3020408 C14.2414694,16.8069388 14.4937143,17.0595918 14.992898,17.0595918" id="Fill-3" fill="#50E3C2"></path>
                <g id="Group-7" transform="translate(20.408163, 0.265878)">
                    <mask id="mask-2" fill="white">
                        <use xlink:href="#path-1"></use>
                    </mask>
                    <g id="Clip-6"></g>
                    <path d="M0.689632653,17.6307755 L2.53983673,17.7054694 C2.95697959,17.7222041 3.19616327,17.5226122 3.25657143,17.107102 L4.02963265,11.8405714 L7.00391837,17.4822041 C7.07371429,17.6099592 7.17983673,17.6764898 7.3235102,17.6822041 L9.03371429,17.7511837 C9.45085714,17.7679184 9.68677551,17.5711837 9.7402449,17.1617959 L11.9194286,0.916489796 C11.9267755,0.879755102 11.9316735,0.842204082 11.9333061,0.804653061 C11.9484082,0.425061224 11.7410612,0.225877551 11.3112653,0.208734694 L9.6757551,0.143020408 C9.28963265,0.127510204 9.04514286,0.308326531 8.94269388,0.684653061 L7.21126531,7.21404082 L3.88228571,2.70873469 C3.80514286,2.60587755 3.70432653,2.552 3.57983673,2.54669388 L1.44881633,2.46138776 C1.01289796,2.44383673 0.783102041,2.65608163 0.759020408,3.09812245 L0.0524897959,16.9409796 L0.0520816327,16.9499592 C0.0349387755,17.3858776 0.247183673,17.6132245 0.689632653,17.6307755" id="Fill-5" fill="#50E3C2" mask="url(#mask-2)"></path>
                </g>
                <path d="M33.7355102,15.6178776 L33.8326531,15.7411429 C34.3955102,16.4533878 35.12,16.8578776 36.0057143,16.9546122 L39.235102,17.308898 C40.0979592,17.4031837 40.8579592,17.1235918 41.5138776,16.4701224 L42.3930612,15.5909388 C43.0489796,14.9370612 43.4297959,14.1309388 43.5346939,13.1729796 L43.8771429,10.0484898 C43.924898,9.60971429 43.7502041,9.36808163 43.3522449,9.32481633 L39.6102041,8.91461224 C39.3914286,8.89093878 39.2689796,8.9995102 39.242449,9.24032653 L38.9338776,12.0586939 C38.9102041,12.2754286 38.9963265,12.419102 39.1926531,12.4909388 L39.7334694,12.681551 L39.6363265,13.5709388 C39.6081633,13.8244082 39.4906122,13.9403265 39.2828571,13.9174694 C39.2608163,13.9146122 39.2379592,13.9121633 39.2159184,13.9097143 L37.5897959,13.5256327 C37.1640816,13.4227755 36.977551,13.1333878 37.0297959,12.6574694 L37.5583673,7.83665306 C37.6673469,6.84114286 38.1730612,6.39297959 39.0755102,6.49216327 L42.6159184,6.87991837 C43.0134694,6.92359184 43.2371429,6.72604082 43.284898,6.28726531 L43.6355102,3.08889796 C43.6836735,2.64971429 43.5081633,2.4084898 43.1106122,2.36481633 L37.5269388,1.75297959 C36.6636735,1.65828571 35.9061224,1.94440816 35.2542857,2.61093878 L35.0053061,2.86522449 C34.3595918,3.52644898 33.9840816,4.33910204 33.8783673,5.30318367 L33.0228571,13.1093061 C32.92,14.0493061 33.157551,14.8848163 33.7355102,15.6178776" id="Fill-8" fill="#50E3C2"></path>
                <g id="Group-12" transform="translate(42.857143, 1.490367)">
                    <mask id="mask-4" fill="white">
                        <use xlink:href="#path-3"></use>
                    </mask>
                    <g id="Clip-11"></g>
                    <path d="M12.1871837,7.74955102 L8.16310204,21.0111837 C8.07902041,21.4487347 7.82555102,21.6446531 7.40269388,21.5981224 L5.2924898,21.3793469 C5.24840816,21.3777143 5.20514286,21.3728163 5.16228571,21.3642449 C4.64187755,21.2646531 4.43902041,20.9164898 4.55330612,20.3193469 C4.55983673,20.2862857 4.56677551,20.249551 4.57412245,20.209551 L7.91616327,6.33853061 C8.03820408,5.83240816 8.31085714,5.61934694 8.73371429,5.70057143 C8.77044898,5.7075102 8.80595918,5.71812245 8.84187755,5.732 L11.6586122,6.78179592 C12.1088163,6.91608163 12.2851429,7.23893878 12.1871837,7.74955102 M16.0169796,3.96546939 L15.6259592,3.32342857 C15.1043265,2.46710204 14.363102,1.94669388 13.4018776,1.76220408 L8.12595918,0.426693878 C7.12146939,0.234040816 6.21534694,0.390367347 5.40759184,0.895673469 L5.33208163,0.943020408 C4.47371429,1.4797551 3.95289796,2.22587755 3.76963265,3.18138776 C3.76718367,3.19444898 3.76391837,3.21118367 3.7602449,3.23118367 L0.19044898,20.276898 C-0.0124081633,21.4001633 0.136163265,22.3642449 0.636163265,23.1683265 L0.708408163,23.2854694 C1.26636735,24.1834286 1.98636735,24.7164898 2.868,24.8854694 L7.96595918,25.8634286 C8.92718367,26.0475102 9.73085714,25.7442449 10.3777959,24.9536327 L10.9120816,24.3034286 C11.5835102,23.4830204 12.0141224,22.5785306 12.2039184,21.5899592 L16.5218776,6.79608163 C16.7165714,5.78138776 16.548,4.83771429 16.0169796,3.96546939" id="Fill-10" fill="#50E3C2" mask="url(#mask-4)"></path>
                </g>
                <path d="M14.4161224,28.630449 C14.3985714,28.630449 14.3814286,28.6275918 14.3638776,28.6218776 L12.947551,28.385551 C12.7377551,28.350449 12.6328571,28.2459592 12.6328571,28.0708571 C12.6328571,28.0124898 12.6446939,27.945551 12.6679592,27.8700408 L13.4022449,25.2733061 C13.4430612,25.128 13.5361224,25.0549388 13.6818367,25.0549388 C13.8973469,25.0549388 14.0283673,25.1512653 14.074898,25.343102 L14.7397959,28.1757551 C14.7516327,28.2165714 14.7573469,28.2545306 14.7573469,28.2896327 C14.7573469,28.5165714 14.6434694,28.630449 14.4161224,28.630449 Z M5.85571429,31.5382041 C5.80510204,31.5443265 5.75163265,31.5471837 5.69489796,31.5488163 L4.32428571,31.5806531 C4.17040816,31.5822857 4.0855102,31.5145306 4.07,31.3773878 L3.84591837,26.9471837 C3.82795918,26.7896327 3.89530612,26.7022857 4.04755102,26.6847347 L5.73938776,26.4937143 C6.22714286,26.4382041 6.49612245,26.6341224 6.54673469,27.0810612 C6.55081633,27.1169796 6.55285714,27.1553469 6.55244898,27.1961633 L6.58346939,30.7377959 C6.59612245,31.2149388 6.35367347,31.4818776 5.85571429,31.5382041 Z M3.78387755,24.012898 L3.74428571,22.5741224 C3.73816327,22.4308571 3.80632653,22.3508571 3.94836735,22.3349388 L5.64061224,22.143102 C5.95040816,22.1084082 6.12265306,22.243102 6.15734694,22.548 L6.21040816,23.0206531 C6.26346939,23.488 6.05489796,23.8022857 5.58428571,23.9635102 L4.32142857,24.4002449 C4.25693878,24.4226939 4.19938776,24.4369796 4.14877551,24.4426939 C3.93530612,24.4667755 3.8144898,24.3545306 3.78632653,24.105551 C3.78265306,24.0753469 3.78183673,24.0443265 3.78387755,24.012898 Z M16.4708163,19.1977959 C16.3597959,18.7777959 16.0859184,18.568 15.6487755,18.568 C15.6022449,18.568 15.5528571,18.5708571 15.5002041,18.5765714 L13.5332653,18.7692245 C13.1602041,18.8043265 12.912449,18.9847347 12.7904082,19.3112653 L10.1504082,26.2251429 C10.0002041,25.6149388 9.66591837,25.1088163 9.14265306,24.7108571 L8.61897959,24.3149388 L8.94306122,23.9075918 C9.43938776,23.2851429 9.64265306,22.583102 9.55408163,21.8006531 L9.42387755,20.6496327 C9.33612245,19.8773878 8.91,19.3414694 8.1455102,19.0422857 C7.54265306,18.8071837 6.81408163,18.7377959 5.96061224,18.8341224 L0.936122449,19.3875918 C0.423061224,19.4459592 0.195306122,19.7288163 0.252857143,20.2373878 L1.45408163,33.2949388 C1.50591837,33.7520816 1.76346939,33.9598367 2.22755102,33.9177959 L7.2855102,33.4606531 C7.31081633,33.4577959 7.33367347,33.4549388 7.35408163,33.4524898 C7.94061224,33.3863673 8.43693878,33.1590204 8.84469388,32.7741224 L10.7181633,32.7741224 C10.9920408,32.7741224 11.19,32.6284082 11.312449,32.3369796 L12.0385714,30.5888163 L15.1504082,31.0696327 L16.5581633,34.4614694 C16.6977551,34.7937143 16.9602041,34.9598367 17.3446939,34.9598367 L20.1859184,34.9598367 C20.4246939,34.9598367 20.5446939,34.8463673 20.5446939,34.6190204 C20.5446939,34.5839184 20.5385714,34.5488163 20.5271429,34.5137143 L16.4708163,19.1977959 Z" id="Fill-13" fill="#50E3C2"></path>
                <g id="Group-17" transform="translate(20.000000, 19.041388)">
                    <mask id="mask-6" fill="white">
                        <use xlink:href="#path-5"></use>
                    </mask>
                    <g id="Clip-16"></g>
                    <path d="M7.70812245,0.581959184 L7.70608163,0.574612245 C7.60444898,0.239102041 7.37995918,0.124408163 7.03220408,0.229714286 L5.57832653,0.670122449 C5.25057143,0.769714286 5.11791837,0.984816327 5.18118367,1.3162449 L5.97220408,5.51542857 L2.17669388,2.03787755 C2.08853061,1.95991837 1.98853061,1.93787755 1.87628571,1.97216327 L0.532612245,2.37910204 C0.204857143,2.47869388 0.0738367347,2.69093878 0.139959184,3.01583673 L2.74118367,15.9137959 C2.74485714,15.944 2.75138776,15.9733878 2.75995918,16.0019592 C2.84853061,16.2942041 3.06159184,16.3893061 3.39955102,16.2868571 L4.68444898,15.8970612 C4.98771429,15.8056327 5.1297551,15.6031837 5.1097551,15.2901224 L5.13628571,8.6517551 L8.49791837,12.3966531 C8.58485714,12.4542041 8.67710204,12.4680816 8.77506122,12.4386939 L10.4493469,11.9313469 C10.7917959,11.8276735 10.9142449,11.6048163 10.8158776,11.2631837 L7.70812245,0.581959184 Z" id="Fill-15" fill="#50E3C2" mask="url(#mask-6)"></path>
                </g>
                <path d="M42.0538367,25.4333061 C41.9464898,25.0524898 41.7028163,24.9157551 41.3224082,25.023102 L37.7448571,26.0312653 C37.5354694,26.0900408 37.4603673,26.2243265 37.5191429,26.4333061 L38.2081224,28.8773878 C38.2611837,29.0651429 38.3901633,29.152898 38.5950612,29.1418776 L39.1575102,29.1043265 L39.3750612,29.8761633 C39.4366939,30.0961633 39.3681224,30.2341224 39.1701633,30.2896327 C39.1485306,30.2957551 39.1273061,30.3018776 39.1056735,30.3075918 L37.4803673,30.5753469 C37.0538367,30.6435102 36.7832245,30.4712653 36.666898,30.0582041 L35.4889388,25.8773878 C35.2452653,25.0149388 35.5554694,24.4614694 36.4179184,24.2182041 L39.8024082,23.2651429 C40.1832245,23.1573878 40.319551,22.9133061 40.2126122,22.5333061 L39.4309796,19.7594286 C39.3236327,19.3786122 39.079551,19.2418776 38.6991429,19.3492245 L33.3607755,20.8537143 C32.5354694,21.0863673 31.9387347,21.5957551 31.5701633,22.3818776 L31.4289388,22.6826939 C31.064449,23.4618776 30.9999592,24.2700408 31.2354694,25.1059592 L33.1432245,31.8753469 C33.3726122,32.690449 33.8791429,33.2969796 34.6624082,33.6949388 L34.7946531,33.7618776 C35.557102,34.1488163 36.362,34.2226939 37.2089388,33.9839184 L40.2958776,33.1141224 C41.1215918,32.8814694 41.7224082,32.3765714 42.099551,31.5990204 L42.6032245,30.5549388 C42.9803673,29.7777959 43.0513878,28.9737143 42.8175102,28.1426939 L42.0538367,25.4333061 Z" id="Fill-18" fill="#50E3C2"></path>
            </g>
        </g>
    </g>
</svg>