<?xml version="1.0" encoding="UTF-8"?>
<svg width="42px" height="42px" viewBox="0 0 42 42" version="1.1" xmlns="http://www.w3.org/2000/svg" xmlns:xlink="http://www.w3.org/1999/xlink">
    <!-- Generator: Sketch 51.3 (57544) - http://www.bohemiancoding.com/sketch -->
    <title>Group 2</title>
    <desc>Created with Sketch.</desc>
    <defs></defs>
    <g id="Page-1" stroke="none" stroke-width="1" fill="none" fill-rule="evenodd">
        <g id="iPhone-8" transform="translate(-315.000000, -12.000000)">
            <g id="Group-2" transform="translate(315.000000, 12.000000)">
                <rect id="Rectangle-3" fill="#50E3C2" x="0" y="0" width="42" height="42" rx="21"></rect>
                <g id="Group" transform="translate(11.000000, 11.000000)" stroke="#371A45" stroke-linecap="round" stroke-width="3">
                    <path d="M0.526315789,1.5 L19.4736842,1.5" id="Line-2"></path>
                    <path d="M0.526315789,9.5 L19.4736842,9.5" id="Line-2"></path>
                    <path d="M0.526315789,17.5 L19.4736842,17.5" id="Line-2"></path>
                </g>
            </g>
        </g>
    </g>
</svg>